module go.nlx.io/nlx

go 1.21

require (
	github.com/DATA-DOG/go-txdb v0.1.7
	github.com/cenkalti/backoff/v4 v4.2.1
	github.com/cloudflare/cfssl v1.6.4
	github.com/coreos/go-oidc/v3 v3.6.0
	github.com/getkin/kin-openapi v0.120.0
	github.com/go-chi/chi/v5 v5.0.10
	github.com/go-chi/render v1.0.3
	github.com/go-ozzo/ozzo-validation/v4 v4.3.0
	github.com/gofrs/uuid v4.4.0+incompatible
	github.com/golang-jwt/jwt/v5 v5.0.0
	github.com/golang-migrate/migrate/v4 v4.16.2
	github.com/google/uuid v1.3.1
	github.com/gorilla/securecookie v1.1.1
	github.com/gorilla/sessions v1.2.1
	github.com/grpc-ecosystem/go-grpc-middleware/v2 v2.0.1
	github.com/grpc-ecosystem/grpc-gateway/v2 v2.18.0
	github.com/jessevdk/go-flags v1.5.0
	github.com/jmoiron/sqlx v1.3.5
	github.com/lestrrat-go/jwx v1.2.26
	github.com/lib/pq v1.10.9
	github.com/oapi-codegen/runtime v1.0.0
	github.com/pkg/errors v0.9.1
	github.com/spf13/cobra v1.7.0
	github.com/stretchr/testify v1.8.4
	github.com/zitadel/schema v1.3.0
	go.uber.org/zap v1.26.0
	go.uber.org/zap/exp v0.2.0
	golang.org/x/crypto v0.13.0
	golang.org/x/exp v0.0.0-20230905200255-921286631fa9
	golang.org/x/net v0.15.0
	golang.org/x/oauth2 v0.12.0
	golang.org/x/sync v0.3.0
	google.golang.org/genproto/googleapis/rpc v0.0.0-20230822172742-b8732ec3820d
	google.golang.org/grpc v1.58.0
	google.golang.org/protobuf v1.31.0
)

require (
	github.com/apapsch/go-jsonmerge/v2 v2.0.0 // indirect
	github.com/decred/dcrd/dcrec/secp256k1/v4 v4.2.0 // indirect
	github.com/go-jose/go-jose/v3 v3.0.0 // indirect
	github.com/go-openapi/jsonpointer v0.19.6 // indirect
	github.com/go-openapi/swag v0.22.4 // indirect
	github.com/goccy/go-json v0.10.2 // indirect
	github.com/invopop/yaml v0.2.0 // indirect
	github.com/josharian/intern v1.0.0 // indirect
	github.com/lestrrat-go/backoff/v2 v2.0.8 // indirect
	github.com/lestrrat-go/blackmagic v1.0.1 // indirect
	github.com/lestrrat-go/httpcc v1.0.1 // indirect
	github.com/lestrrat-go/iter v1.0.2 // indirect
	github.com/lestrrat-go/option v1.0.1 // indirect
	github.com/mailru/easyjson v0.7.7 // indirect
	github.com/mohae/deepcopy v0.0.0-20170929034955-c48cc78d4826 // indirect
	github.com/opencontainers/image-spec v1.0.3-0.20211202183452-c5a74bcca799 // indirect
	github.com/perimeterx/marshmallow v1.1.5 // indirect
	github.com/rogpeppe/go-internal v1.10.0 // indirect
	github.com/stretchr/objx v0.5.0 // indirect
	go.uber.org/goleak v1.2.1 // indirect
	golang.org/x/text v0.13.0 // indirect
	google.golang.org/appengine v1.6.7 // indirect
	google.golang.org/genproto v0.0.0-20230822172742-b8732ec3820d // indirect
	google.golang.org/genproto/googleapis/api v0.0.0-20230822172742-b8732ec3820d // indirect
	gopkg.in/yaml.v3 v3.0.1 // indirect
)

require (
	github.com/ajg/form v1.5.1 // indirect
	github.com/asaskevich/govalidator v0.0.0-20210307081110-f21760c49a8d // indirect
	github.com/davecgh/go-spew v1.1.1 // indirect
	github.com/go-logr/logr v1.2.4 // indirect
	github.com/golang/protobuf v1.5.3 // indirect
	github.com/google/certificate-transparency-go v1.1.4 // indirect
	github.com/hashicorp/errwrap v1.1.0 // indirect
	github.com/hashicorp/go-multierror v1.1.1 // indirect
	github.com/inconshreveable/mousetrap v1.1.0 // indirect
	github.com/kisielk/sqlstruct v0.0.0-20210630145711-dae28ed37023 // indirect
	github.com/pelletier/go-toml v1.9.5 // indirect
	github.com/pmezard/go-difflib v1.0.0 // indirect
	github.com/spf13/pflag v1.0.5 // indirect
	github.com/weppos/publicsuffix-go v0.20.0 // indirect
	github.com/zmap/zcrypto v0.0.0-20230205235340-d51ce4775101 // indirect
	github.com/zmap/zlint/v3 v3.4.1 // indirect
	go.uber.org/atomic v1.10.0 // indirect
	go.uber.org/multierr v1.11.0 // indirect
	golang.org/x/sys v0.12.0 // indirect
	gopkg.in/square/go-jose.v2 v2.6.0
	k8s.io/klog/v2 v2.90.0 // indirect
)
